…
``` r
starting_and_end_stations %>% 
  group_by(start_station_id, start_station_name) %>% 
  summarize(number_trips = n()) %>% 
  arrange(desc(number_trips))
```

    ## `summarise()` has grouped output by 'start_station_id'. You can override using
    ## the `.groups` argument.

    ## # A tibble: 683 × 3
    ## # Groups:   start_station_id [682]
    ##    start_station_id start_station_name         number_trips
    ##    <chr>            <chr>                             <int>
    ##  1 13022            Streeter Dr & Grand Ave            9934
    ##  2 13300            Lake Shore Dr & Monroe St          5957
    ##  3 13008            Millennium Park                    4742
    ##  4 13042            Michigan Ave & Oak St              4645
    ##  5 LF-005           Lake Shore Dr & North Blvd         4484
    ##  6 TA1308000001     Theater on the Lake                3952
    ##  7 TA1308000050     Wells St & Concord Ln              3905
    ##  8 TA1307000039     Clark St & Elm St                  3716
    ##  9 TA1307000117     Wabash Ave & Grand Ave             3395
    ## 10 KA1504000135     Wells St & Elm St                  3324
    ## # … with 673 more rows
    ## # ℹ Use `print(n = ...)` to see more rows
…
